{
    "title": "Dating_life_guide",
    "identifier": "com.yourcompany.wizardEVAP.Datinglifeguide",
    "orientation": "auto",
    "versioncode": 1,
    "versionname": "1.0.0",
    "stage": "test"
}
